{"name":"Obteniendo los usuarios","id":"obtener-los-usuarios-de-la-api-reqres.in;obteniendo-los-usuarios","testSteps":[{"number":1,"description":"Given quiero conocer información de los usuarios en la DB","duration":221,"startTime":"2022-04-21T12:18:06.433745-05:00[America/Bogota]","result":"SUCCESS","precondition":false,"level":0},{"number":2,"description":"When se consume el servicio mediante una petición get","duration":6331,"startTime":"2022-04-21T12:18:06.662075-05:00[America/Bogota]","result":"SUCCESS","precondition":false,"level":0,"children":[{"number":3,"description":"Teo do get","duration":5600,"startTime":"2022-04-21T12:18:07.380488-05:00[America/Bogota]","result":"SUCCESS","precondition":false,"level":1,"children":[{"number":4,"description":"Teo executes a GET on the resource /users?page\u003d2","duration":5387,"startTime":"2022-04-21T12:18:07.567839-05:00[America/Bogota]","result":"SUCCESS","precondition":false,"level":2,"children":[{"number":5,"description":"GET https://reqres.in/api/users?page\u003d2","duration":0,"startTime":"2022-04-21T12:18:12.954205-05:00[America/Bogota]","result":"SUCCESS","restQuery":{"method":"GET","path":"https://reqres.in/api/users?page\u003d2","content":"","contentType":"application/json","requestHeaders":"Accept\u003d*/*\n\t\t\t\tContent-Type\u003dapplication/json","requestCookies":"","responseHeaders":"Date: Thu, 21 Apr 2022 17:18:12 GMT\nContent-Type: application/json; charset\u003dutf-8\nTransfer-Encoding: chunked\nConnection: keep-alive\nX-Powered-By: Express\nAccess-Control-Allow-Origin: *\nEtag: W/\"406-ut0vzoCuidvyMf8arZpMpJ6ZRDw\"\nVia: 1.1 vegur\nCache-Control: max-age\u003d14400\nCF-Cache-Status: REVALIDATED\nExpect-CT: max-age\u003d604800, report-uri\u003d\"https://report-uri.cloudflare.com/cdn-cgi/beacon/expect-ct\"\nReport-To: {\"endpoints\":[{\"url\":\"https:\\/\\/a.nel.cloudflare.com\\/report\\/v3?s\u003d1OBpYduRrjp1vT4xIakRCjiTozKaDORws3QOz9XVdNvcUId22Dc%2BKZSv5O4HndafKjmMqCnYpqhNriSRwAgLJlxNYvsGCoIZJn9Ouzn4iFMByHsvmN1oBtUUTdQ%3D\"}],\"group\":\"cf-nel\",\"max_age\":604800}\nNEL: {\"success_fraction\":0,\"report_to\":\"cf-nel\",\"max_age\":604800}\nVary: Accept-Encoding\nServer: cloudflare\nCF-RAY: 6ff7c7111910d4f1-MIA\nContent-Encoding: gzip\nalt-svc: h3\u003d\":443\"; ma\u003d86400, h3-29\u003d\":443\"; ma\u003d86400","responseCookies":"","responseBody":"{\n    \"page\": 2,\n    \"per_page\": 6,\n    \"total\": 12,\n    \"total_pages\": 2,\n    \"data\": [\n        {\n            \"id\": 7,\n            \"email\": \"michael.lawson@reqres.in\",\n            \"first_name\": \"Michael\",\n            \"last_name\": \"Lawson\",\n            \"avatar\": \"https://reqres.in/img/faces/7-image.jpg\"\n        },\n        {\n            \"id\": 8,\n            \"email\": \"lindsay.ferguson@reqres.in\",\n            \"first_name\": \"Lindsay\",\n            \"last_name\": \"Ferguson\",\n            \"avatar\": \"https://reqres.in/img/faces/8-image.jpg\"\n        },\n        {\n            \"id\": 9,\n            \"email\": \"tobias.funke@reqres.in\",\n            \"first_name\": \"Tobias\",\n            \"last_name\": \"Funke\",\n            \"avatar\": \"https://reqres.in/img/faces/9-image.jpg\"\n        },\n        {\n            \"id\": 10,\n            \"email\": \"byron.fields@reqres.in\",\n            \"first_name\": \"Byron\",\n            \"last_name\": \"Fields\",\n            \"avatar\": \"https://reqres.in/img/faces/10-image.jpg\"\n        },\n        {\n            \"id\": 11,\n            \"email\": \"george.edwards@reqres.in\",\n            \"first_name\": \"George\",\n            \"last_name\": \"Edwards\",\n            \"avatar\": \"https://reqres.in/img/faces/11-image.jpg\"\n        },\n        {\n            \"id\": 12,\n            \"email\": \"rachel.howell@reqres.in\",\n            \"first_name\": \"Rachel\",\n            \"last_name\": \"Howell\",\n            \"avatar\": \"https://reqres.in/img/faces/12-image.jpg\"\n        }\n    ],\n    \"support\": {\n        \"url\": \"https://reqres.in/#support-heading\",\n        \"text\": \"To keep ReqRes free, contributions towards server costs are appreciated!\"\n    }\n}","statusCode":200},"precondition":false,"level":3}]}]}]},{"number":6,"description":"Then se visualizarán todos los usuarios","duration":664,"startTime":"2022-04-21T12:18:12.994261-05:00[America/Bogota]","result":"SUCCESS","precondition":false,"level":0}],"userStory":{"id":"obtener-los-usuarios-de-la-api-reqres.in","storyName":"Obtener los usuarios de la api reqres.in","displayName":"Obtener los usuarios de la api reqres.in","path":"getusers.feature","narrative":"  Como usuario de los servicios de la api reqres.in\n  Quiero acceder a los usuarios en la base de datos\n  Para saber el correo de cada uno","type":"feature"},"featureTag":{"name":"Obtener los usuarios de la api reqres.in","type":"feature","displayName":"Obtener los usuarios de la api reqres.in"},"title":"Obteniendo los usuarios","description":"","tags":[{"name":"Obtener los usuarios de la api reqres.in","type":"feature","displayName":"Obtener los usuarios de la api reqres.in"}],"startTime":"2022-04-21T12:18:06.200080-05:00[America/Bogota]","duration":7465,"projectKey":"","isManualTestingUpToDate":false,"manual":false,"testSource":"Cucumber","actors":[{"name":"Teo","can":["call an API at https://reqres.in/api"]}],"result":"SUCCESS"}